%YAML 1.1
%TAG !u! tag:unity3d.com,2011:
--- !u!1 &3631927407379989492
GameObject:
  m_ObjectHideFlags: 0
  m_CorrespondingSourceObject: {fileID: 0}
  m_PrefabInstance: {fileID: 0}
  m_PrefabAsset: {fileID: 0}
  serializedVersion: 6
  m_Component:
  - component: {fileID: 3631927407379989499}
  - component: {fileID: 3631927407379989498}
  - component: {fileID: 3631927407379989497}
  m_Layer: 0
  m_Name: Plataform
  m_TagString: Untagged
  m_Icon: {fileID: 0}
  m_NavMeshLayer: 0
  m_StaticEditorFlags: 0
  m_IsActive: 1
--- !u!4 &3631927407379989499
Transform:
  m_ObjectHideFlags: 0
  m_CorrespondingSourceObject: {fileID: 0}
  m_PrefabInstance: {fileID: 0}
  m_PrefabAsset: {fileID: 0}
  m_GameObject: {fileID: 3631927407379989492}
  m_LocalRotation: {x: 0, y: 0, z: 0, w: 1}
  m_LocalPosition: {x: -1, y: 1, z: -1}
  m_LocalScale: {x: 1, y: 1, z: 1}
  m_Children:
  - {fileID: 8583164303546207473}
  m_Father: {fileID: 0}
  m_RootOrder: 0
  m_LocalEulerAnglesHint: {x: 0, y: 0, z: 0}
--- !u!114 &3631927407379989498
MonoBehaviour:
  m_ObjectHideFlags: 0
  m_CorrespondingSourceObject: {fileID: 0}
  m_PrefabInstance: {fileID: 0}
  m_PrefabAsset: {fileID: 0}
  m_GameObject: {fileID: 3631927407379989492}
  m_Enabled: 1
  m_EditorHideFlags: 0
  m_Script: {fileID: 11500000, guid: f27185e82a2edc346a713a62f4beb761, type: 3}
  m_Name: 
  m_EditorClassIdentifier: 
  _enemiesPrefab: {fileID: 721561047949246754, guid: 3cf6db1242bc65b498be90c3b958c5a7,
    type: 3}
  _playerDetectionRange: 0.5
--- !u!95 &3631927407379989497
Animator:
  serializedVersion: 3
  m_ObjectHideFlags: 0
  m_CorrespondingSourceObject: {fileID: 0}
  m_PrefabInstance: {fileID: 0}
  m_PrefabAsset: {fileID: 0}
  m_GameObject: {fileID: 3631927407379989492}
  m_Enabled: 1
  m_Avatar: {fileID: 0}
  m_Controller: {fileID: 9100000, guid: 5dea9a4f57e0c9d4aa721aa66c8879cb, type: 2}
  m_CullingMode: 0
  m_UpdateMode: 0
  m_ApplyRootMotion: 1
  m_LinearVelocityBlending: 0
  m_WarningMessage: 
  m_HasTransformHierarchy: 1
  m_AllowConstantClipSamplingOptimization: 1
  m_KeepAnimatorControllerStateOnDisable: 0
--- !u!1001 &3631927406999562219
PrefabInstance:
  m_ObjectHideFlags: 0
  serializedVersion: 2
  m_Modification:
    m_TransformParent: {fileID: 3631927407379989499}
    m_Modifications:
    - target: {fileID: -927199367670048503, guid: e5888c2b2619cda409c64db06caae55b,
        type: 3}
      propertyPath: m_Name
      value: blockLarge
      objectReference: {fileID: 0}
    - target: {fileID: -4216859302048453862, guid: e5888c2b2619cda409c64db06caae55b,
        type: 3}
      propertyPath: m_LocalPosition.x
      value: 1
      objectReference: {fileID: 0}
    - target: {fileID: -4216859302048453862, guid: e5888c2b2619cda409c64db06caae55b,
        type: 3}
      propertyPath: m_LocalPosition.y
      value: -1
      objectReference: {fileID: 0}
    - target: {fileID: -4216859302048453862, guid: e5888c2b2619cda409c64db06caae55b,
        type: 3}
      propertyPath: m_LocalPosition.z
      value: 1
      objectReference: {fileID: 0}
    - target: {fileID: -4216859302048453862, guid: e5888c2b2619cda409c64db06caae55b,
        type: 3}
      propertyPath: m_LocalRotation.x
      value: -0
      objectReference: {fileID: 0}
    - target: {fileID: -4216859302048453862, guid: e5888c2b2619cda409c64db06caae55b,
        type: 3}
      propertyPath: m_LocalRotation.y
      value: -0
      objectReference: {fileID: 0}
    - target: {fileID: -4216859302048453862, guid: e5888c2b2619cda409c64db06caae55b,
        type: 3}
      propertyPath: m_LocalRotation.z
      value: -0
      objectReference: {fileID: 0}
    - target: {fileID: -4216859302048453862, guid: e5888c2b2619cda409c64db06caae55b,
        type: 3}
      propertyPath: m_LocalRotation.w
      value: 1
      objectReference: {fileID: 0}
    - target: {fileID: -4216859302048453862, guid: e5888c2b2619cda409c64db06caae55b,
        type: 3}
      propertyPath: m_RootOrder
      value: 0
      objectReference: {fileID: 0}
    - target: {fileID: -4216859302048453862, guid: e5888c2b2619cda409c64db06caae55b,
        type: 3}
      propertyPath: m_LocalEulerAnglesHint.x
      value: 0
      objectReference: {fileID: 0}
    - target: {fileID: -4216859302048453862, guid: e5888c2b2619cda409c64db06caae55b,
        type: 3}
      propertyPath: m_LocalEulerAnglesHint.y
      value: 0
      objectReference: {fileID: 0}
    - target: {fileID: -4216859302048453862, guid: e5888c2b2619cda409c64db06caae55b,
        type: 3}
      propertyPath: m_LocalEulerAnglesHint.z
      value: 0
      objectReference: {fileID: 0}
    - target: {fileID: 8710985109946367726, guid: e5888c2b2619cda409c64db06caae55b,
        type: 3}
      propertyPath: m_Materials.Array.data[0]
      value: 
      objectReference: {fileID: -9117483709511198939, guid: 591eee639b13165469192782ac880227,
        type: 3}
    - target: {fileID: 8710985109946367726, guid: e5888c2b2619cda409c64db06caae55b,
        type: 3}
      propertyPath: m_Materials.Array.data[1]
      value: 
      objectReference: {fileID: -6126091556477775235, guid: 8ef37ecae3e8eed47a0e72b96a10266a,
        type: 3}
    - target: {fileID: 8710985109946367726, guid: e5888c2b2619cda409c64db06caae55b,
        type: 3}
      propertyPath: m_CastShadows
      value: 0
      objectReference: {fileID: 0}
    - target: {fileID: 8710985109946367726, guid: e5888c2b2619cda409c64db06caae55b,
        type: 3}
      propertyPath: m_ReceiveShadows
      value: 0
      objectReference: {fileID: 0}
    m_RemovedComponents: []
  m_SourcePrefab: {fileID: 100100000, guid: e5888c2b2619cda409c64db06caae55b, type: 3}
--- !u!4 &8583164303546207473 stripped
Transform:
  m_CorrespondingSourceObject: {fileID: -4216859302048453862, guid: e5888c2b2619cda409c64db06caae55b,
    type: 3}
  m_PrefabInstance: {fileID: 3631927406999562219}
  m_PrefabAsset: {fileID: 0}
